C:\Users\Denisa\Documents\AN4\SD\grpc-java-sprinboot\grpc-java-master\grpc-java-hello-world\src\main\java\com\codenotfound\grpc\helloworld\HelloWorld.java
C:\Users\Denisa\Documents\AN4\SD\grpc-java-sprinboot\grpc-java-master\grpc-java-hello-world\src\main\java\com\codenotfound\grpc\helloworld\portocala.java
C:\Users\Denisa\Documents\AN4\SD\grpc-java-sprinboot\grpc-java-master\grpc-java-hello-world\src\main\java\com\codenotfound\grpc\helloworld\Person.java
C:\Users\Denisa\Documents\AN4\SD\grpc-java-sprinboot\grpc-java-master\grpc-java-hello-world\src\main\java\com\codenotfound\grpc\helloworld\Greeting.java
C:\Users\Denisa\Documents\AN4\SD\grpc-java-sprinboot\grpc-java-master\grpc-java-hello-world\src\main\java\com\codenotfound\grpc\helloworld\GreetingOrBuilder.java
C:\Users\Denisa\Documents\AN4\SD\grpc-java-sprinboot\grpc-java-master\grpc-java-hello-world\src\main\java\com\codenotfound\grpc\helloworld\HelloWorldServiceGrpc.java
C:\Users\Denisa\Documents\AN4\SD\grpc-java-sprinboot\grpc-java-master\grpc-java-hello-world\src\main\java\com\codenotfound\grpc\helloworld\PersonOrBuilder.java
